{
  "type": "service_account",
  "project_id": "meme-5e243",
  "private_key_id": "d18441b0e020239dc3c75cf315a533a3d18d5026",
  "private_key": "-----BEGIN PRIVATE KEY-----\nMIIEvgIBADANBgkqhkiG9w0BAQEFAASCBKgwggSkAgEAAoIBAQCUXQ6QT8lCDnvO\na6GmP1KPpcg4r8kUIn/f+kmgBSbcrSgeBOkAbvgJxP6vLwIXlm/pWjtCDfjy8CbK\nHLr+eeWJhrtr90+0g2xy+/FC50518pZ3ULH9Fu+0W1C1xS7IrwmU4EmuGmzt9xJq\nFP0zpBkLZRBEVPjLhNTtR5EJlw7T1sTsi3wNK1FAVX0YY6sn5GxGfmxpoOMylB9U\nHY5nxE6wu6/Ije0A5OiWqD1WCLnWusCYgBNEn4hO80yLvV11Odp84plFE53RpT6/\nZxKW7c9cmg9MZ9/suQu6xnB5pEsCm36Zp3kWn/pRjBZnPqnk8RNCvfJ+jki5zK6Y\n3XE6u4rjAgMBAAECggEADmvvRvriet/SjBGtUG42Vc1NJal8t87UtE5tircFfIz+\nadCbX5Xp2XVDNn8wyl8uuLWzLewSx3atppbdXHA37kLhBBExt7/QsmqoHJNEbrWq\nh6WZ75qjqVn5AfpNXmeZXFXjA6AA9669JP+uTy9D2fY0exfxaUMbuYbr481BvTis\n3rUuKTZmGyiXzZSwKEbfnCWuFaH2o2IwbF5/01PLmaO9DWBtbJpBnnwpBdFbeYN0\npK6byf/uvb2XxFtNI5i/2wFCYpxy5SLwwXcqcZQE48QuobTz9qZxEK0pnnvpl4Ru\nRhZ0zctih7P/n1JsJnDvQ48c/xoLPZ/HW4hNkEuf8QKBgQDFBZPXYK8pLWqPXIW4\noBz1AmeOcaKrqsTmd1D/u1JywwdOGE1wId4aDxmzBUZQ708NE6vAwTD59dUfWkCp\nhesPCTsztG1VBPG+Wva4/OTabnh+zbBzxa8eNHMw5QCdKG8ZqYEhJ69xahHHPaCc\nYLf7T55z5KCgtivJdzY1B0nPsQKBgQDAxqLl28fVJj0hCxzT4/uhf/QjQW37MtMb\nldCg2CQvGC/Xzu8kCmES72eAAkMr7ZeJesXge8SFzUKGFcbTH2TWl8u/ql/wnBVq\ny+tCmx8ZoMBmkO/lXfnODg/OQJxcwuKaPjhuYwbx8eJ0zaGw0I0sQ3pzmhuIuST2\n68dMko4c0wKBgQCY9LaNK+twnWiv+dV6uxsf/4jj5kay3XXVsmX407WzkMOYFnfw\nCOsD8hsyh3LKnK8TaOUbVSCvvfGCULAIrAYL+0+x2W5T5e3DqZ0HipYlGkSDtS47\nAwrr+S5AlFjAqcZu9tBgLA4hj4ZT1v1cyh2rhmlucd1eR2+BDgLQcmMUUQKBgBDo\nWxk18YzsUag4RUsAT+2WP19oObEyf/mHZkj1LBdFU8zlxWuvzVvPy5AaorGToRrZ\nvck2kcH6gr8n4cxakImRvrkMxGViCy7Wu8eXu16QDs/wHlpLp8E+0nwQhqZMIXvN\nwT1NSiqmQGpmLqxHXlpngLHq7kdLlcZiX5SDthspAoGBAKdlg4jmiYRE9obgmy9q\nBXy+gHtt2ApRViaHlcQnk92sytjQ6dJLUKPbibo+ShTbsF88CW6StBSoObgVaFgK\naAWuNAbNkycxyCUSPhwHB0CoQNz8EKISL4zJqst6U2y6qNZeLSBS9Fpr/nVAqUWS\nyycCcdWa3VNDH1z3YeYgN3JG\n-----END PRIVATE KEY-----\n",
  "client_email": "firebase-adminsdk-1yske@meme-5e243.iam.gserviceaccount.com",
  "client_id": "112997072308616733540",
  "auth_uri": "https://accountsAIzaSyAcj4G8Stypgbux1ODHLkLyfVnXKdiwnrE.google.com/o/oauth2/auth",
  "token_uri": "https://oauth2.googleapis.com/token",
  "auth_provider_x509_cert_url": "https://www.googleapis.com/oauth2/v1/certs",
  "client_x509_cert_url": "https://www.googleapis.com/robot/v1/metadata/x509/firebase-adminsdk-1yske%40meme-5e243.iam.gserviceaccount.com"
}
